Visualizing HR Employee Clusters
…
Visualization - R

library(tidyverse)
library(reticulate)

# Replace this with your conda environment containking sklearn, pandas, & numpy
use_condaenv("py3.8", required = TRUE)

Data Ingest - R

hr_data_tbl <- read_csv("data/HRDataset_v13.csv")

hr_data_tbl

## # A tibble: 401 x 35
##    Employee_Name  EmpID MarriedID MaritalStatusID GenderID EmpStatusID DeptID
##    <chr>          <dbl>     <dbl>           <dbl>    <dbl>       <dbl>  <dbl>
##  1 Brown, Mia    1.10e9         1               1        0           1      1
##  2 LaRotonda, W 1.11e9         0               2        1           1      1
##  3 Steans, Tyro 1.30e9         0               0        1           1      1
##  4 Howard, Este 1.21e9         1               1        0           1      1
##  5 Singh, Nan    1.31e9         0               0        0           1      1
##  6 Smith, Leigh 7.11e8         1               1        0           5      1
##  7 Bunbury, Jes 1.50e9         1               1        0           5      6
##  8 Carter, Mich 1.40e9         0               0        0           1      6
##  9 Dietrich, Je 1.41e9         0               0        0           1      6
## 10 Digitale, Al 1.31e9         1               1        1           1      6
## #  with 391 more rows, and 28 more variables: PerfScoreID <dbl>,
## #   FromDiversityJobFairID <dbl>, PayRate <dbl>, Termd <dbl>, PositionID <dbl>,
## #   Position <chr>, State <chr>, Zip <chr>, DOB <chr>, Sex <chr>,
## #   MaritalDesc <chr>, CitizenDesc <chr>, HispanicLatino <chr>, RaceDesc <chr>,
## #   DateofHire <chr>, DateofTermination <chr>, TermReason <chr>,
## #   EmploymentStatus <chr>, Department <chr>, ManagerName <chr>,
## #   ManagerID <dbl>, RecruitmentSource <chr>, PerformanceScore <chr>,
## #   EngagementSurvey <dbl>, EmpSatisfaction <dbl>, SpecialProjectsCount <dbl>,
## #   LastPerformanceReview_Date <chr>, DaysLateLast30 <dbl>
…
